PDM/12V_4A.csv

Record Length,2500,Points,0.0,-0.20000000298,
Sample Interval,399.99998990E-6,s,0.00019999965999999841,-0.20000000298,
Trigger Point,330.00000655,Samples,0.00039999931999999683,-0.20000000298,
,,,0.0005999989810000009,-0.20000000298,
,,,0.0007999986409999993,-0.20000000298,
,,,0.0009999983009999977,-0.20000000298,
Source,CH1,,0.0012000016869999977,-0.20000000298,
Vertical Units,Volts,,0.0014000013469999961,-0.20000000298,
Vertical Scale,5.00000007,,0.0016000010029999998,-0.20000000298,
Vertical Offset,0,,0.0018000006629999982,-0.20000000298,
Horizontal Units,s,,0.0020000003229999966,-0.20000000298,
Horizontal Scale,99.999997474E-3,,0.002199999982999995,-0.20000000298,
Pt Fmt,Y,,0.002399999653000001,-0.20000000298,
Yzero,0.0,,0.0025999993129999996,-0.20000000298,
Probe Atten,1.000000,,0.002799998972999998,-4.83461833929999e-05,
,,,0.0029999986329999964,-0.19994793685943688,
Note,TDS 1002B - 22:44:05   29/07/2025,,0.0031999982930000018,-0.20000000298,
,,,0.0034000016729999957,-0.20000000298,
,,,0.003600001333000001,-0.20000000298,
,,,0.0038000009929999995,-0.20000000298,
,,,0.004000000652999998,-0.20000000298,
,,,0.004200000312999996,-0.20000000298,
,,,0.004399999973000002,-0.20000000298,
,,,0.004599999633,-0.20000000298,
,,,0.0047999992929999985,-0.20000000298,
,,,0.004999998952999997,-0.20000000298,
,,,0.005199998612999995,-0.20000000298,
,,,0.005399998273000001,-0.20000000298,
,,,0.0056000016629999955,-0.20000000298,
,,,0.005800001323000001,-0.20000000298,
,,,0.006000000982999999,-0.20000000298,
,,,0.006200000642999998,-0.20000000298,
,,,0.006400000302999996,-0.20000000298,
,,,0.006599999963000001,-0.20000000298,
,,,0.006799999623,-0.20000000298,
,,,0.006999999282999998,-0.20000000298,
,,,0.007199998942999997,-0.20000000298,
,,,0.007399998602999995,-0.20000000298,
,,,0.007599998263,-0.20000000298,
,,,0.007800001652999995,-0.20000000298,
,,,0.008000001313,-0.20000000298,
,,,0.008200000972999999,-0.20000000298,
,,,0.008400000632999997,-0.20000000298,
,,,0.008600000292999996,-0.20000000298,
,,,0.008799999953000001,-0.20000000298,
,,,0.008999999613,-0.20000000298,
,,,0.009199999272999998,-0.00015620436155946993,
,,,0.009399998932999996,0.0,
,,,0.009599998593000002,-0.19983635874410716,
,,,0.009799998253,-0.20000000298,
,,,0.009999997912999999,-0.20000000298,
,,,0.010200001303,-0.20000000298,
,,,0.010400000962999999,-0.20000000298,
,,,0.010600000622999997,-0.20000000298,
,,,0.010800000282999996,-0.20000000298,
,,,0.010999999943000001,-0.20000000298,
,,,0.011199999603,-0.20000000298,
,,,0.011399999262999998,-0.00019339373339435917,
,,,0.011599998922999996,-0.1998028893094355,
,,,0.011799998583000001,-0.20000000298,
,,,0.011999998243,-0.20000000298,
,,,0.012199997902999998,-0.20000000298,
,,,0.012400001283,-0.20000000298,
,,,0.012600000942999998,-0.20000000298,
,,,0.012800000602999996,-0.20000000298,
,,,0.013000000263000001,-0.20000000298,
,,,0.013199999933,-0.20000000298,
,,,0.013399999592999999,-0.20000000298,
,,,0.013599999252999997,-0.20000000298,
,,,0.013799998912999996,-0.20000000298,
,,,0.013999998573000001,-0.20000000298,
,,,0.014199998233,-0.20000000298,
,,,0.014399997892999998,-0.20000000298,
,,,0.014600001272999999,-0.20000000298,
,,,0.014800000932999997,-0.20000000298,
,,,0.015000000592999996,-0.20000000298,
,,,0.015200000253000001,-0.20000000298,
,,,0.015399999913,-0.20000000298,
,,,0.015599999572999998,-0.20000000298,
,,,0.015799999232999996,-0.20000000298,
,,,0.015999998893,-0.20000000298,
,,,0.016199998553,-0.20000000298,
,,,0.016399998213,-0.20000000298,
,,,0.016599997872999997,-0.20000000298,
,,,0.016800001263,-0.20000000298,
,,,0.017000000922999997,-0.20000000298,
,,,0.017200000582999996,-0.20000000298,
,,,0.017400000243,-0.20000000298,
,,,0.017599999903,-0.20000000298,
,,,0.017799999562999998,-0.20000000298,
,,,0.017999999222999996,-0.20000000298,
,,,0.018199998883,-0.20000000298,
,,,0.018399998543,-0.20000000298,
,,,0.018599998203,-0.20000000298,
,,,0.018799997862999997,-0.20000000298,
,,,0.019000001253,-0.000319841597551912,
,,,0.019200000912999997,0.0,
,,,0.019400000572999995,-0.19967272150810778,
,,,0.019600000233,-0.20000000298,
,,,0.019799999893,-0.0003347213462256138,
,,,0.019999999552999997,-0.19966156169660426,
,,,0.020199999212999996,-0.20000000298,
,,,0.020399998873,-0.20000000298,
,,,0.020599998533,-0.20000000298,
,,,0.020799998192999998,-0.20000000298,
,,,0.020999997852999996,-0.20000000298,
,,,0.021200001242999998,-0.20000000298,
,,,0.021400000902999997,-0.20000000298,
,,,0.021600000562999995,-0.20000000298,
,,,0.021800000223,-0.20000000298,
,,,0.021999999883,-0.000371910718060503,
,,,0.022199999542999997,-0.19962437232476937,
,,,0.022399999202999996,-0.20000000298,
,,,0.022599998863,-0.20000000298,
,,,0.022799998523,-0.20000000298,
,,,0.022999998182999998,-0.20000000298,
,,,0.023199997842999996,-0.20000000298,
,,,0.023400001222999997,-0.20000000298,
,,,0.023600000882999995,-0.20000000298,
,,,0.023800000553,-0.20000000298,
,,,0.024000000213,-0.20000000298,
,,,0.024199999873,-0.20000000298,
,,,0.024399999532999997,-0.20000000298,
,,,0.024599999192999995,-0.20000000298,
,,,0.024799998852999997,-0.20000000298,
,,,0.024999998513,-0.20000000298,
,,,0.025200000033,-0.20000000298,
,,,0.025399999692999997,-0.20000000298,
,,,0.025599999353,-0.20000000298,
,,,0.025799999012999997,-0.20000000298,
,,,0.025999998673,-0.00044071955581742595,
,,,0.026200000193,-0.19955742345560792,
,,,0.026399999852999997,-0.20000000298,
,,,0.026599999513,-0.0004500193987289347,
,,,0.026799999172999998,-0.1995462636441009,
,,,0.026999998833,-0.20000000298,
,,,0.027199998492999998,-0.20000000298,
,,,0.027400000023,-0.20000000298,
,,,0.027599999682999997,-0.20000000298,
,,,0.027799999343,-0.20000000298,
,,,0.027999999002999997,-0.20000000298,
,,,0.028199998663,-0.20000000298,
,,,0.028400000183,-0.20000000298,
,,,0.028599999842999997,-0.20000000298,
,,,0.028799999503,-0.20000000298,
,,,0.028999999162999997,-0.20000000298,
,,,0.029199998823,-0.20000000298,
,,,0.029399998482999998,-0.20000000298,
,,,0.029600000012999998,-0.20000000298,
,,,0.029799999672999997,-0.20000000298,
,,,0.029999999333,-0.20000000298,
,,,0.030199998992999997,-0.20000000298,
,,,0.030399998653,-0.20000000298,
,,,0.030599998312999997,-0.20000000298,
,,,0.030799999832999997,-0.20000000298,
,,,0.030999999493,-0.20000000298,
,,,0.031199999152999997,-0.20000000298,
,,,0.031399998813,-0.20000000298,
,,,0.031599998473,-0.20000000298,
,,,0.031799999993,-0.20000000298,
,,,0.031999999653,-0.20000000298,
,,,0.032199999312999994,-0.0005448577968207025,
,,,0.032399998973,-0.19945142524601608,
,,,0.032599998633,-0.20000000298,
,,,0.032799998303,-0.20000000298,
,,,0.032999999823,-0.20000000298,
,,,0.033199999482999995,-0.20000000298,
,,,0.033399999143,-0.20000000298,
,,,0.033599998803,-0.20000000298,
,,,0.033799998463,-0.20000000298,
,,,0.033999999983,-0.0005746072943152714,
,,,0.034199999642999995,-0.19942167574851458,
,,,0.034399999303,-0.20000000298,
,,,0.034599998963,-0.20000000298,
,,,0.034799998623,-0.20000000298,
,,,0.034999998283,-0.20000000298,
,,,0.035199999812999996,-0.20000000298,
,,,0.035399999473,-0.20000000298,
,,,0.03559999913299999,-0.20000000298,
,,,0.035799998793,-0.20000000298,
,,,0.035999998403,-0.20000000298,
,,,0.036200000003,-0.20000000298,
,,,0.036399999603,-0.20000000298,
,,,0.036599999302999994,-0.20000000298,
,,,0.036799999003,-0.20000000298,
,,,0.036999998603,-0.20000000298,
,,,0.037199998303,-0.20000000298,
,,,0.037399999803,-0.20000000298,
,,,0.037599999503,-0.20000000298,
,,,0.037799999103,-0.20000000298,
,,,0.037999998803,-0.20000000298,
,,,0.03819999840299999,-0.20000000298,
,,,0.038399998103,-0.20000000298,
,,,0.03859999960299999,-0.20000000298,
,,,0.038799999303,-0.20000000298,
,,,0.038999998903,-0.20000000298,
,,,0.039199998603,-0.20000000298,
,,,0.039399998303,-0.20000000298,
,,,0.039599999803,-0.20000000298,
,,,0.039799999403,-0.20000000298,
,,,0.039999999103,-0.20000000298,
,,,0.040199998803,-0.20000000298,
,,,0.040399999403,-0.20000000298,
,,,0.040599999003,-0.20000000298,
,,,0.040799998702999996,-0.20000000298,
,,,0.040999999302999995,-0.20000000298,
,,,0.041199998902999996,-0.20000000298,
,,,0.041399998603,-0.20000000298,
,,,0.041599999203,-0.20000000298,
,,,0.041799998803,-0.20000000298,
,,,0.041999998503,-0.20000000298,
,,,0.042199999103,-0.20000000298,
,,,0.042399998802999994,-0.20000000298,
,,,0.042599999303,-0.20000000298,
,,,0.042799999002999994,-0.20000000298,
,,,0.042999998702999996,-0.0007279847036268106,
,,,0.043199999302999996,-0.19926923832333276,
,,,0.043399998902999996,-0.20000000298,
,,,0.043599998603,-0.20000000298,
,,,0.043799999203,-0.20000000298,
,,,0.043999998803,-0.20000000298,
,,,0.044199998503,-0.20000000298,
,,,0.044399999103,-0.20000000298,
,,,0.044599998703,-0.20000000298,
,,,0.044799998403,-0.20000000298,
,,,0.044999999003,-0.20000000298,
,,,0.045199998703,-0.20000000298,
,,,0.045399999203,-0.20000000298,
,,,0.045599998903,-0.20000000298,
,,,0.045799998603,-0.20000000298,
,,,0.045999999158,-0.20000000298,
,,,0.046199998818,-0.20000000298,
,,,0.046399998478,-0.20000000298,
,,,0.046599999069999995,-0.20000000298,
,,,0.04679999873,-0.20000000298,
,,,0.04699999839,-0.20000000298,
,,,0.047199998982,-0.20000000298,
,,,0.047399998642,-0.20000000298,
,,,0.047599999234,-0.20000000298,
,,,0.047799998893999995,-0.0008089123366783191,
,,,0.047999998554,0.0,
,,,0.048199998679999995,-0.19918411676111553,
,,,0.048399998805999996,-0.20000000298,
,,,0.048599998931999996,-0.20000000298,
,,,0.048799998593,-0.20000000298,
,,,0.048999998722999996,-0.20000000298,
,,,0.049199998843,-0.20000000298,
,,,0.049399998973,-0.20000000298,
,,,0.049599998633,-0.20000000298,
,,,0.049799998753,-0.20000000298,
,,,0.049999998882999996,-0.20000000298,
,,,0.050199998543,-0.20000000298,
,,,0.050399998673,-0.20000000298,
,,,0.050599998793,-0.20000000298,
,,,0.050799998922999995,-0.20000000298,
,,,0.050999998583,-0.20000000298,
,,,0.051199998703,-0.20000000298,
,,,0.051399998833,-0.20000000298,
,,,0.051599998492999996,-0.20000000298,
,,,0.051799998623,-0.20000000298,
,,,0.051999998743,-0.20000000298,
,,,0.052199998633,-0.20000000298,
,,,0.052399998763,-0.20000000298,
,,,0.052599998652999996,-0.20000000298,
,,,0.052799998783,-0.20000000298,
,,,0.052999998672999996,-0.20000000298,
,,,0.053199998573,-0.20000000298,
,,,0.053399998702999996,-0.20000000298,
,,,0.053599998603,-0.20000000298,
,,,0.053799998703,-0.20000000298,
,,,0.053999998603,-0.0009139815619542135,
,,,0.054199998602999996,-0.19908264147513519,
,,,0.054399998602999995,-0.20000000298,
,,,0.054599998603,-0.20000000298,
,,,0.054799998603,-0.20000000298,
,,,0.054999998653994,-0.20000000298,
,,,0.055199998605285995,-0.0009342589334518092,
,,,0.055399998614786,-0.19906237360348214,
,,,0.05559999859518,-0.20000000298,
,,,0.05579999859013,-0.20000000298,
,,,0.05599999858507661,-0.20000000298,
,,,0.05619999858002,-0.20000000298,
,,,0.056399998574969995,-0.20000000298,
,,,0.056599998555367,-0.20000000298,
,,,0.056799998564867,-0.20000000298,
,,,0.056999998503,-0.20000000298,
,,,0.057199998503,-0.20000000298,
,,,0.057399998502999997,0.39708538419081985,
,,,0.057599998502999995,0.0019498410652747378,
,,,0.057799998602999995,0.0,
,,,0.057999998603,0.0,
,,,0.058199998503,-0.19901494261863772,
,,,0.058399998603,-0.0009883403059600393,
,,,0.058599998502999996,-0.1990081827328165,
,,,0.058799998602999996,-0.20000000298,
,,,0.058999998493,-0.0009985901328297686,
,,,0.059199998622999996,0.0,
,,,0.059399998513,0.0,
,,,0.059599998402999996,-0.1989911830199575,
,,,0.059799998533,-0.20000000298,
,,,0.059999998663,-0.20000000298,
,,,0.060199998323,-0.20000000298,
,,,0.060399998443,-0.20000000298,
,,,0.060599998573,-0.0010255496774588813,
,,,0.060799998233,-0.1989707333653779,
,,,0.060999998353,-0.0010325295595628448,
,,,0.061199998483,-0.19896422347533532,
,,,0.061399998612999995,-0.0010390294497734376,
,,,0.061599998273,0.0,
,,,0.061799998392999995,0.0,
,,,0.061999998523,0.0,
,,,0.062199998643,0.0,
,,,0.062399998303,-0.19894376382091683,
,,,0.062599998433,-0.0010594891041850185,
,,,0.062799998563,-0.19893726393071318,
,,,0.062999998223,-0.20000000298,
,,,0.063199998343,-0.20000000298,
,,,0.063399998471,-0.0010729708764631862,
,,,0.063599998597,-0.19892377815849388,
,,,0.063799998257,-0.001079944758669349,
,,,0.063999998383,-0.19891680427628772,
,,,0.064199998043,-0.20000000298,
,,,0.064399998635,-0.20000000298,
,,,0.064599998295,-0.20000000298,
,,,0.064799997955,-0.0010971464681246157,
,,,0.064999998547,0.0,
,,,0.065199998207,-0.1988963486218034,
,,,0.06539999879899999,-0.0011064423111054045,
,,,0.065599998459,0.0,
,,,0.065799998119,2.187747296142815,
,,,0.065999998703,7.967616334474455,
,,,0.066199998403,8.19887945201059,
,,,0.066399998003,8.199999809,
,,,0.066599998603,8.199999809,
,,,0.066799998303,8.001130596806522,
,,,0.066999997903,8.0,
,,,0.067199998503,8.59658890550769,
,,,0.067399998203,8.600000381,
,,,0.067599997903,8.600000381,
,,,0.067799998403,8.798852794487795,
,,,0.067999998103,8.800000191,
,,,0.068199998703,8.800000191,
,,,0.068399998403,8.998842463674642,
,,,0.068599998003,9.0,
,,,0.068799998603,9.0,
,,,0.06899999830299999,9.198832032857528,
,,,0.069199997903,9.199999809,
,,,0.069399998503,9.199999809,
,,,0.069599998203,9.199999809,
,,,0.069799997803,9.398818770470768,
,,,0.069999998403,9.400000572,
,,,0.070199998103,9.400000572,
,,,0.07039999780299999,9.598808445289036,
,,,0.070599998303,9.600000381,
,,,0.07079999800299999,9.600000381,
,,,0.07099999860299999,9.600000381,
,,,0.071199998303,9.600000381,
,,,0.071399997903,9.600000381,
,,,0.071599998503,9.600000381,
,,,0.071799999103,9.798785895682345,
,,,0.071999998803,9.800000191,
,,,0.072199998403,9.800000191,
,,,0.07239999810299999,9.998774564887366,
,,,0.07259999770299999,10.0,
,,,0.072799997403,10.0,
,,,0.07299999890299999,10.0,
,,,0.073199998603,10.0,
,,,0.073399998203,10.0,
,,,0.073599997903,10.198753885309221,
,,,0.073799997603,10.1999998,
,,,0.07399999720299999,10.1999998,
,,,0.074199998703,10.1999998,
,,,0.074399998403,10.398741659247685,
,,,0.074599998103,10.4000006,
,,,0.074799997703,10.4000006,
,,,0.074999997403,10.4000006,
,,,0.075199998903,10.4000006,
,,,0.075399998603,10.4000006,
,,,0.075599998203,10.4000006,
,,,0.075799997903,10.598717305974958,
,,,0.075999997603,10.6000004,
,,,0.076199997213,10.6000004,
,,,0.07639999874299999,10.6000004,
,,,0.076599998403,10.6000004,
,,,0.076799998063,10.6000004,
,,,0.076999997723,10.798696646341297,
,,,0.077199997383,10.8000002,
,,,0.077399998903,10.8000002,
,,,0.077599998563,10.8000002,
,,,0.077799998223,10.8000002,
,,,0.077999997883,10.998679706641038,
,,,0.078199997543,10.80132421329235,
,,,0.078399997203,10.998672266774262,
,,,0.078599998723,11.0,
,,,0.078799998383,11.0,
,,,0.078999998043,11.0,
,,,0.079199997703,11.198659047007391,
,,,0.07939999737299999,11.00134446292619,
,,,0.079599998893,11.19865347710713,
,,,0.07979999855299999,11.1999998,
,,,0.079999998213,11.1999998,
,,,0.080199997873,11.1999998,
,,,0.080399997533,11.1999998,
,,,0.080599997193,11.1999998,
,,,0.080799998713,11.1999998,
,,,0.080999998373,11.1999998,
,,,0.081199998033,11.1999998,
,,,0.08139999769299999,11.398622650783574,
,,,0.081599997353,11.4000006,
,,,0.081799997013,11.4000006,
,,,0.081999998543,11.4000006,
,,,0.082199998203,11.4000006,
,,,0.082399997863,11.4000006,
,,,0.082599997523,11.4000006,
,,,0.08279999718299999,11.4000006,
,,,0.082999998703,11.4000006,
,,,0.083199998363,11.598592708205999,
,,,0.083399998023,11.401412011727405,
,,,0.083599997683,11.598585268339209,
,,,0.083799997343,11.40141945159418,
,,,0.083999997003,11.598577828472418,
,,,0.084199998523,11.6000004,
,,,0.084399998183,11.6000004,
,,,0.084599997853,11.6000004,
,,,0.08479999751299999,11.6000004,
,,,0.084999997173,11.6000004,
,,,0.08519999869299999,11.6000004,
,,,0.085399998353,11.6000004,
,,,0.085599998013,11.798551598938511,
,,,0.085799997673,11.8000002,
,,,0.085999997333,11.8000002,
,,,0.086199996993,11.8000002,
,,,0.086399998513,11.601462020828361,
,,,0.086599998173,11.798534859238252,
,,,0.08679999783299999,11.8000002,
,,,0.086999997493,11.8000002,
,,,0.087199997153,11.998523499438074,
,,,0.08739999681300001,11.801480420495313,
,,,0.087599996473,11.998516059571285,
,,,0.08779999613299999,12.0,
,,,0.087999999523,12.0,
,,,0.088199999183,12.0,
,,,0.088399998843,12.0,
,,,0.08859999850299999,12.0,
,,,0.088799998163,12.0,
,,,0.088999997823,12.0,
,,,0.089199997483,12.0,
,,,0.089399997143,12.0,
,,,0.089599996803,12.19848239017059,
,,,0.08979999646299999,12.1999998,
,,,0.089999996123,12.1999998,
,,,0.090199999513,12.001524839696351,
,,,0.090399999173,12.198471240370248,
,,,0.09059999883299999,12.1999998,
,,,0.090799998493,12.1999998,
,,,0.090999998153,12.1999998,
,,,0.091199997813,12.1999998,
,,,0.091399997473,12.1999998,
,,,0.09159999713299999,12.1999998,
,,,0.091799996793,12.1999998,
,,,0.091999996453,12.1999998,
,,,0.092199996113,12.398438553159512,
,,,0.092399999503,12.201561836840604,
,,,0.09259999916299999,12.1999998,
,,,0.092799998823,12.1999998,
,,,0.092999998483,12.1999998,
,,,0.093199998143,12.398423683351433,
,,,0.093399997803,12.4000006,
,,,0.09359999746299999,12.4000006,
,,,0.093799997123,12.4000006,
,,,0.093999996783,12.4000006,
,,,0.094199996443,12.4000006,
,,,0.094399996103,12.4000006,
,,,0.09459999576299999,12.4000006,
,,,0.094799999143,12.4000006,
,,,0.094999998803,12.4000006,
,,,0.09519999846300001,12.4000006,
,,,0.095399998133,12.4000006,
,,,0.09559999779299999,12.4000006,
,,,0.095799997453,12.4000006,
,,,0.095999997113,12.4000006,
,,,0.09619999677300001,12.4000006,
,,,0.096399996433,12.59836770223492,
,,,0.09659999609299999,12.6000004,
,,,0.096799995753,12.6000004,
,,,0.096999999133,12.6000004,
,,,0.09719999879300001,12.6000004,
,,,0.097399998453,12.6000004,
,,,0.09759999811299999,12.6000004,
,,,0.097799997773,12.6000004,
,,,0.097999997433,12.6000004,
,,,0.09819999709300001,12.6000004,
,,,0.098399996753,12.6000004,
,,,0.09859999641299999,12.6000004,
,,,0.098799996073,12.6000004,
,,,0.098999995743,12.6000004,
,,,0.099199999123,12.6000004,
,,,0.099399998783,12.6000004,
,,,0.09959999844299999,12.6000004,
,,,0.099799998103,12.6000004,
,,,0.099999997763,12.6000004,
,,,0.100199997423,12.6000004,
,,,0.100399997083,12.798300553433704,
,,,0.10059999674299999,12.8000002,
,,,0.100799996403,12.601707486433087,
,,,0.100999996063,12.6000004,
,,,0.10119999572300001,12.6000004,
,,,0.10139999911299999,12.79828568369996,
,,,0.101599998773,12.8000002,
,,,0.101799998433,12.8000002,
,,,0.101999998093,12.601726076100203,
,,,0.102199997753,12.798270803966394,
,,,0.10239999741299999,12.8000002,
,,,0.102599997073,12.8000002,
,,,0.102799996733,12.8000002,
,,,0.102999996393,12.8000002,
,,,0.103199996053,12.8000002,
,,,0.103399995713,12.8000002,
,,,0.103599999103,12.8000002,
,,,0.103799998763,12.8000002,
,,,0.103999998423,12.8000002,
,,,0.104199998083,12.8000002,
,,,0.10439999774299999,12.8000002,
,,,0.104599997403,12.8000002,
,,,0.104799997063,12.8000002,
,,,0.104999996723,12.8000002,
,,,0.105199996383,12.8000002,
,,,0.10539999604299999,12.8000002,
,,,0.105599995703,12.8000002,
,,,0.105799999083,12.8000002,
,,,0.10599999875300001,12.8000002,
,,,0.106199998413,12.998203665165002,
,,,0.10639999807299999,12.801800254768398,
,,,0.106599997733,12.998196225298212,
,,,0.106799997393,12.801807694635174,
,,,0.106999997053,12.8000002,
,,,0.107199996713,12.998185065498035,
,,,0.10739999637299999,13.0,
,,,0.107599996033,13.0,
,,,0.107799995693,13.0,
,,,0.10799999907300001,13.0,
,,,0.108199998733,13.0,
,,,0.10839999839299999,12.801833734168918,
,,,0.108599998053,12.998162745897694,
,,,0.108799997713,13.0,
,,,0.10899999737300001,13.0,
,,,0.109199997033,13.0,
,,,0.10939999669299999,13.0,
,,,0.109599996353,13.0,
,,,0.109799996023,13.0,
,,,0.10999999568300001,13.0,
,,,0.110199999063,13.0,
,,,0.11039999872299999,13.0,
,,,0.110599998384,13.0,
,,,0.110799998045,13.0,
,,,0.11099999770499999,13.0,
,,,0.111199997365,13.0,
,,,0.111399997025,13.0,
,,,0.111599996686,13.0,
,,,0.11179999634599999,13.0,
,,,0.111999996006,13.0,
,,,0.112199995666,13.0,
,,,0.112399995327,13.0,
